Grouped Statistical Analyses in a Tidy Way • groupedstats
…
If you want summary of variables of factor type-

# for reproducibility
set.seed(123)
library(ggplot2)
options(tibble.width = Inf) # show me all columns

groupedstats::grouped_summary(
  data = ggplot2::diamonds,
  grouping.vars = c(cut, clarity),
  measures = color,
  measures.type = "factor"
)
#> # A tibble: 40 x 10
#>    cut   clarity skim_type skim_variable missing complete ordered n_unique
#>    <ord> <ord>   <chr>     <chr>           <int>    <dbl> <lgl>      <int>
#>  1 Fair  I1      factor    color               0        1 TRUE           7
#>  2 Fair  SI2     factor    color               0        1 TRUE           7
#>  3 Fair  SI1     factor    color               0        1 TRUE           7
#>  4 Fair  VS2     factor    color               0        1 TRUE           7
#>  5 Fair  VS1     factor    color               0        1 TRUE           7
#>  6 Fair  VVS2    factor    color               0        1 TRUE           7
#>  7 Fair  VVS1    factor    color               0        1 TRUE           7
#>  8 Fair  IF      factor    color               0        1 TRUE           3
#>  9 Good  I1      factor    color               0        1 TRUE           7
#> 10 Good  SI2     factor    color               0        1 TRUE           7
#>    top_counts                         n
#>    <chr>                          <int>
#>  1 G: 53, H: 52, F: 35, I: 34       210
#>  2 H: 91, F: 89, G: 80, E: 78       466
#>  3 F: 83, H: 75, G: 69, E: 65       408
#>  4 F: 53, G: 45, E: 42, H: 41       261
#>  5 G: 45, F: 33, H: 32, I: 25       170
#>  6 G: 17, E: 13, H: 11, F: 10        69
#>  7 F: 5, D: 3, E: 3, G: 3            17
#>  8 F: 4, D: 3, G: 2, E: 0             9
#>  9 E: 23, F: 19, G: 19, H: 14        96
#> 10 D: 223, E: 202, F: 201, G: 163  1081
#> # … with 30 more rows
…
This produces a long format table with two new columns factor.level and its corresponding count, which can then be immediately fed into other pipelines,

e.g., preparing a plot of mean and sd values in ggplot2).

# for reproducibility
set.seed(123)
options(tibble.width = Inf) # show me all columns

groupedstats::grouped_summary(
  data = ggplot2::diamonds,
  grouping.vars = c(cut, clarity)
)
#> # A tibble: 280 x 17
#>    cut   clarity skim_type skim_variable missing complete    mean       sd
#>    <ord> <ord>   <chr>     <chr>           <int>    <dbl>   <dbl>    <dbl>
#>  1 Fair  I1      numeric   carat               0        1    1.36    0.745
#>  2 Fair  I1      numeric   depth               0        1   65.7     3.10 
#>  3 Fair  I1      numeric   table               0        1   58.1     2.87 
#>  4 Fair  I1      numeric   price               0        1 3704.   3099.   
#>  5 Fair  I1      numeric   x                   0        1    6.72    1.11 
#>  6 Fair  I1      numeric   y                   0        1    6.62    1.13 
#>  7 Fair  I1      numeric   z                   0        1    4.39    0.756
#>  8 Fair  SI2     numeric   carat               0        1    1.20    0.501
#>  9 Fair  SI2     numeric   depth               0        1   64.4     3.16 
#> 10 Fair  SI2     numeric   table               0        1   58.8     3.68 
#>       min     p25  median     p75      max     n std.error mean.conf.low
#>     <dbl>   <dbl>   <dbl>   <dbl>    <dbl> <int>     <dbl>         <dbl>
#>  1   0.34    0.85    1.06    1.82     5.01   210    0.0514          1.26
#>  2  55.6    64.7    66.0    67.3     78.2    210    0.214          65.3 
#>  3  52      56      58      59       67      210    0.198          57.7 
#>  4 584    1387.   2397    5614.   18531      210  214.           3282.  
#>  5   4.72    5.96    6.56    7.46    10.7    210    0.0769          6.57
#>  6   4.6     5.82    6.42    7.38    10.5    210    0.0777          6.47
#>  7   2.6     3.77    4.22    4.86     6.98   210    0.0522          4.28
#>  8   0.25    0.9     1.01    1.5      3.01   466    0.0232          1.16
#>  9  53.1    64.5    65.1    65.9     72.2    466    0.147          64.1 
#> 10  50.1    56      58      60       79      466    0.171          58.5 
#>    mean.conf.high
#>             <dbl>
#>  1           1.46
#>  2          66.1 
#>  3          58.5 
#>  4        4125.  
#>  5           6.87
#>  6           6.78
#>  7           4.49
#>  8           1.25
#>  9          64.7 
#> 10          59.2 
#> # … with 270 more rows
…
population GDP (per capita) Thus, in this case we have two regression models and one grouping variable with 142 levels (countries)

# for reproducibility
set.seed(123)
library(gapminder)
options(tibble.width = Inf) # show me all columns

groupedstats::grouped_slr(
  data = gapminder::gapminder,
  dep.vars = c(lifeExp, pop),
  indep.vars = c(gdpPercap, gdpPercap),
  grouping.vars = country
)
#> # A tibble: 284 x 9
#>    country     formula             t.value estimate conf.low conf.high std.error
#>    <fct>       <chr>                 <dbl>    <dbl>    <dbl>     <dbl>     <dbl>
#>  1 Afghanistan lifeExp ~ gdpPercap  -0.151  -0.0475   -0.751     0.656    0.316 
#>  2 Albania     lifeExp ~ gdpPercap   4.84    0.837     0.452     1.22     0.173 
#>  3 Algeria     lifeExp ~ gdpPercap   6.71    0.904     0.604     1.21     0.135 
#>  4 Angola      lifeExp ~ gdpPercap  -0.998  -0.301    -0.973     0.371    0.302 
#>  5 Argentina   lifeExp ~ gdpPercap   4.74    0.832     0.440     1.22     0.176 
#>  6 Australia   lifeExp ~ gdpPercap  19.0     0.986     0.871     1.10     0.0519
#>  7 Austria     lifeExp ~ gdpPercap  26.5     0.993     0.910     1.08     0.0374
#>  8 Bahrain     lifeExp ~ gdpPercap   6.45    0.898     0.587     1.21     0.139 
#>  9 Bangladesh  lifeExp ~ gdpPercap   5.05    0.847     0.473     1.22     0.168 
#> 10 Belgium     lifeExp ~ gdpPercap  26.1     0.993     0.908     1.08     0.0380
#>     p.value significance
#>       <dbl> <chr>       
#>  1 8.83e- 1 ns          
#>  2 6.82e- 4 ***         
#>  3 5.33e- 5 ***         
#>  4 3.42e- 1 ns          
#>  5 7.97e- 4 ***         
#>  6 3.52e- 9 ***         
#>  7 1.34e-10 ***         
#>  8 7.38e- 5 ***         
#>  9 5.03e- 4 ***         
#> 10 1.56e-10 ***         
#> # … with 274 more rows
…
# for reproducibility
set.seed(123)
library(ggplot2)
library(dplyr)
options(tibble.width = Inf) # show me all columns

groupedstats::grouped_slr(
  data = ggplot2::diamonds,
  dep.vars = price,
  indep.vars = carat,
  grouping.vars = c(cut, clarity)
) %>%
  dplyr::arrange(cut)
#> # A tibble: 40 x 10
#>    cut   clarity formula       t.value estimate conf.low conf.high std.error
#>    <ord> <ord>   <chr>           <dbl>    <dbl>    <dbl>     <dbl>     <dbl>
#>  1 Fair  VS2     price ~ carat   42.0     0.934    0.890     0.978   0.0222 
#>  2 Fair  SI2     price ~ carat   69.1     0.955    0.928     0.982   0.0138 
#>  3 Fair  SI1     price ~ carat   58.9     0.946    0.915     0.978   0.0161 
#>  4 Fair  I1      price ~ carat   58.7     0.971    0.939     1.00    0.0165 
#>  5 Fair  VVS1    price ~ carat    8.58    0.911    0.685     1.14    0.106  
#>  6 Fair  VS1     price ~ carat   36.6     0.943    0.892     0.994   0.0257 
#>  7 Fair  IF      price ~ carat    8.22    0.952    0.678     1.23    0.116  
#>  8 Fair  VVS2    price ~ carat   13.6     0.857    0.732     0.983   0.0629 
#>  9 Good  VS1     price ~ carat   74.0     0.946    0.921     0.971   0.0128 
#> 10 Good  SI2     price ~ carat  103.      0.953    0.934     0.971   0.00926
#>      p.value significance
#>        <dbl> <chr>       
#>  1 1.55e-117 ***         
#>  2 1.96e-246 ***         
#>  3 4.58e-201 ***         
#>  4 1.86e-131 ***         
#>  5 3.59e-  7 ***         
#>  6 5.40e- 82 ***         
#>  7 7.67e-  5 ***         
#>  8 5.54e- 21 ***         
#>  9 9.62e-318 ***         
#> 10 0         ***         
#> # … with 30 more rows
…
The same function can also be used to get model summaries instead of a tidy dataframe containing results-

# for reproducibility
set.seed(123)
library(groupedstats)

groupedstats::grouped_lm(
  data = ggplot2::diamonds,
  grouping.vars = c(cut, color), # grouping variables
  formula = price ~ carat * clarity, # formula
  output = "glance" # dataframe with model summaries
)
#> # A tibble: 35 x 14
#>    cut   color r.squared adj.r.squared sigma statistic   p.value    df logLik
#>    <ord> <ord>     <dbl>         <dbl> <dbl>     <dbl>     <dbl> <dbl>  <dbl>
#>  1 Fair  D         0.915         0.906 1005.      106. 1.03e- 70    15 -1350.
#>  2 Fair  E         0.917         0.912  883.      179. 8.70e-106    13 -1830.
#>  3 Fair  F         0.917         0.912  954.      217. 9.37e-150    15 -2575.
#>  4 Fair  G         0.932         0.929  964.      273. 5.03e-164    15 -2595.
#>  5 Fair  H         0.932         0.929 1033.      332. 1.76e-161    12 -2526.
#>  6 Fair  I         0.958         0.955  794.      307. 1.14e-104    12 -1410.
#>  7 Fair  J         0.955         0.950  907.      204. 1.82e- 66    11  -973.
#>  8 Good  D         0.933         0.931  831.      600. 0            15 -5382.
#>  9 Good  E         0.927         0.926  905.      781. 0            15 -7667.
#> 10 Good  F         0.915         0.914  939.      644. 0            15 -7504.
#>       AIC    BIC   deviance df.residual  nobs
#>     <dbl>  <dbl>      <dbl>       <int> <int>
#>  1  2733.  2786. 148463951.         147   163
#>  2  3690.  3741. 163677866.         210   224
#>  3  5184.  5248. 269389292.         296   312
#>  4  5224.  5288. 277025077.         298   314
#>  5  5081.  5133. 309753202.         290   303
#>  6  2848.  2892. 102049583.         162   175
#>  7  1972.  2008.  88046170.         107   119
#>  8 10797. 10874. 446239835.         646   662
#>  9 15369. 15451. 750592238.         917   933
#> 10 15042. 15123. 787519475.         893   909
#> # … with 25 more rows
…
The same function can also be used to compute Tukey’s test of Honest Significant Differences (HSD). For example, we can check for differences in life expectancy between different continents for all years for which the gapminder survey was conducted:

# for reproducibility
set.seed(123)
library(groupedstats)
library(gapminder)

groupedstats::grouped_aov(
  data = gapminder::gapminder,
  grouping.vars = year,
  formula = lifeExp ~ continent,
  output = "tukey"
)
#> # A tibble: 120 x 9
#>     year term      contrast         null.value estimate conf.low conf.high
#>    <int> <chr>     <chr>                 <dbl>    <dbl>    <dbl>     <dbl>
#>  1  1952 continent Americas-Africa           0    14.1      9.21     19.1 
#>  2  1952 continent Asia-Africa               0     7.18     2.66     11.7 
#>  3  1952 continent Europe-Africa             0    25.3     20.6      29.9 
#>  4  1952 continent Oceania-Africa            0    30.1     15.5      44.7 
#>  5  1952 continent Asia-Americas             0    -6.97   -12.3      -1.59
#>  6  1952 continent Europe-Americas           0    11.1      5.64     16.6 
#>  7  1952 continent Oceania-Americas          0    16.0      1.07     30.9 
#>  8  1952 continent Europe-Asia               0    18.1     13.0      23.2 
#>  9  1952 continent Oceania-Asia              0    22.9      8.17     37.7 
#> 10  1952 continent Oceania-Europe            0     4.85    -9.97     19.7 
#>    adj.p.value significance
#>          <dbl> <chr>       
#>  1    7.35e-12 ***         
#>  2    2.11e- 4 ***         
#>  3    1.01e-14 ***         
#>  4    7.12e- 7 ***         
#>  5    4.28e- 3 **          
#>  6    1.12e- 6 ***         
#>  7    2.91e- 2 *           
#>  8    5.87e-14 ***         
#>  9    3.16e- 4 ***         
#> 10    8.95e- 1 ns          
#> # … with 110 more rows
…
Linear mixed effects analyses (lme4::lmer) for all combinations of grouping variable levels can be carried out using grouped_lmer:

# for reproducibility
set.seed(123)
library(gapminder)

# getting tidy output of results
groupedstats::grouped_lmer(
  data = gapminder,
  formula = scale(lifeExp) ~ scale(gdpPercap) + (gdpPercap | continent),
  grouping.vars = year,
  output = "tidy"
)
#> # A tibble: 24 x 10
#>     year effect term             estimate std.error statistic conf.low conf.high
#>    <int> <chr>  <chr>               <dbl>     <dbl>     <dbl>    <dbl>     <dbl>
#>  1  1952 fixed  (Intercept)         0.260    0.487      0.534  -0.694      1.21 
#>  2  1952 fixed  scale(gdpPercap)    0.966    0.409      2.36    0.164      1.77 
#>  3  1957 fixed  (Intercept)         0.252    0.441      0.573  -0.612      1.12 
#>  4  1957 fixed  scale(gdpPercap)    0.839    0.355      2.36    0.143      1.53 
#>  5  1962 fixed  (Intercept)         0.244    0.491      0.497  -0.719      1.21 
#>  6  1962 fixed  scale(gdpPercap)    0.553    0.233      2.37    0.0965     1.01 
#>  7  1967 fixed  (Intercept)         0.234    0.342      0.683  -0.437      0.904
#>  8  1967 fixed  scale(gdpPercap)    0.296    0.0919     3.22    0.116      0.476
#>  9  1972 fixed  (Intercept)         0.260    0.345      0.753  -0.417      0.936
#> 10  1972 fixed  scale(gdpPercap)    0.250    0.0694     3.60    0.114      0.386
#>     p.value significance
#>       <dbl> <chr>       
#>  1 0.593    ns          
#>  2 0.0182   *           
#>  3 0.567    ns          
#>  4 0.0180   *           
#>  5 0.619    ns          
#>  6 0.0176   *           
#>  7 0.494    ns          
#>  8 0.00128  **          
#>  9 0.452    ns          
#> 10 0.000321 ***         
#> # … with 14 more rows
…
# check the long format iris dataset
iris_long
#> # A tibble: 600 x 5
#>    Species    id part  measure value
#>    <fct>   <int> <chr> <chr>   <dbl>
#>  1 setosa      1 Sepal Length    5.1
#>  2 setosa      2 Sepal Length    4.9
#>  3 setosa      3 Sepal Length    4.7
#>  4 setosa      4 Sepal Length    4.6
#>  5 setosa      5 Sepal Length    5  
#>  6 setosa      6 Sepal Length    5.4
#>  7 setosa      7 Sepal Length    4.6
#>  8 setosa      8 Sepal Length    5  
#>  9 setosa      9 Sepal Length    4.4
#> 10 setosa     10 Sepal Length    4.9
#> # … with 590 more rows
…
