…
``` r
library(gapminder)
library(dplyr)
options(tibble.width = Inf)            # show me all columns

groupedstats::grouped_lm(data = gapminder::gapminder,
                         dep.vars = c(lifeExp, pop),
                         indep.vars = c(gdpPercap, gdpPercap),
                         grouping.vars = c(continent, country)) %>%
  dplyr::arrange(.data = ., continent, country)
#> # A tibble: 284 x 10
#>    continent country      formula              t.value estimate conf.low
#>    <fct>     <fct>        <chr>                  <dbl>    <dbl>    <dbl>
#>  1 Africa    Algeria      lifeExp ~ gdpPercap   6.71    0.904      0.604
#>  2 Africa    Algeria      pop ~ gdpPercap       5.04    0.847      0.473
#>  3 Africa    Angola       lifeExp ~ gdpPercap  -0.998  -0.301     -0.973
#>  4 Africa    Angola       pop ~ gdpPercap      -0.964  -0.292     -0.966
#>  5 Africa    Benin        lifeExp ~ gdpPercap   4.98    0.844      0.466
#>  6 Africa    Benin        pop ~ gdpPercap       6.97    0.911      0.620
#>  7 Africa    Botswana     lifeExp ~ gdpPercap   0.0177  0.00560   -0.699
#>  8 Africa    Botswana     pop ~ gdpPercap      18.3     0.985      0.865
#>  9 Africa    Burkina Faso lifeExp ~ gdpPercap   5.91    0.882      0.549
#> 10 Africa    Burkina Faso pop ~ gdpPercap       7.43    0.920      0.644
#>    conf.high std.error       p.value significance
#>        <dbl>     <dbl>         <dbl> <chr>       
#>  1     1.21     0.135  0.0000533     ***         
#>  2     1.22     0.168  0.000503      ***         
#>  3     0.371    0.302  0.342         ns          
#>  4     0.382    0.302  0.358         ns          
#>  5     1.22     0.170  0.000557      ***         
#>  6     1.20     0.131  0.0000386     ***         
#>  7     0.710    0.316  0.986         ns          
#>  8     1.11     0.0539 0.00000000515 ***         
#>  9     1.21     0.149  0.000149      ***         
#> 10     1.20     0.124  0.0000223     ***         
#> # ... with 274 more rows
```
…
There is also robust variant of linear regression (as implemented in
`robust::lmRob`)-

``` r
library(gapminder)
library(dplyr)
options(tibble.width = Inf)            # show me all columns

groupedstats::grouped_robustlm(data = gapminder::gapminder,
                         dep.vars = c(lifeExp, pop),
                         indep.vars = c(gdpPercap, gdpPercap),
                         grouping.vars = c(continent, country)) %>%
  dplyr::arrange(.data = ., continent, country)
#> # A tibble: 284 x 8
#>    continent country      formula             t.value estimate std.error
#>    <fct>     <fct>        <chr>                 <dbl>    <dbl>     <dbl>
#>  1 Africa    Algeria      lifeExp ~ gdpPercap   5.82     0.904    0.155 
#>  2 Africa    Algeria      pop ~ gdpPercap       2.49     0.869    0.349 
#>  3 Africa    Angola       lifeExp ~ gdpPercap  -0.734   -0.413    0.563 
#>  4 Africa    Angola       pop ~ gdpPercap      -2.45    -0.541    0.221 
#>  5 Africa    Benin        lifeExp ~ gdpPercap   2.46     0.773    0.315 
#>  6 Africa    Benin        pop ~ gdpPercap       7.18     0.929    0.129 
#>  7 Africa    Botswana     lifeExp ~ gdpPercap   4.42     1.47     0.332 
#>  8 Africa    Botswana     pop ~ gdpPercap      15.3      1.08     0.0706
#>  9 Africa    Burkina Faso lifeExp ~ gdpPercap   2.14     0.882    0.413 
#> 10 Africa    Burkina Faso pop ~ gdpPercap       7.17     0.920    0.128 
#>         p.value significance
#>           <dbl> <chr>       
#>  1 0.000168     ***         
#>  2 0.0319       *           
#>  3 0.480        ns          
#>  4 0.0344       *           
#>  5 0.0338       *           
#>  6 0.0000299    ***         
#>  7 0.00130      **          
#>  8 0.0000000294 ***         
#>  9 0.0583       ns          
#> 10 0.0000304    ***         
#> # ... with 274 more rows
```
…
# check the long format iris dataset
iris_long
#> # A tibble: 600 x 5
#>    Species    id part  measure value
#>    <fct>   <int> <chr> <chr>   <dbl>
#>  1 setosa      1 Sepal Length   5.10
#>  2 setosa      2 Sepal Length   4.90
#>  3 setosa      3 Sepal Length   4.70
#>  4 setosa      4 Sepal Length   4.60
#>  5 setosa      5 Sepal Length   5.00
#>  6 setosa      6 Sepal Length   5.40
#>  7 setosa      7 Sepal Length   4.60
#>  8 setosa      8 Sepal Length   5.00
#>  9 setosa      9 Sepal Length   4.40
#> 10 setosa     10 Sepal Length   4.90
#> # ... with 590 more rows
…
