Extracting p-values for models that don't produce them. — grouped_p_value • groupedstats
…
#> boundary (singular) fit: see ?isSingular
#> boundary (singular) fit: see ?isSingular
#> boundary (singular) fit: see ?isSingular
#> boundary (singular) fit: see ?isSingular
#> boundary (singular) fit: see ?isSingular
#> boundary (singular) fit: see ?isSingular
#> boundary (singular) fit: see ?isSingular
#> boundary (singular) fit: see ?isSingular
#> boundary (singular) fit: see ?isSingular
#> # A tibble: 80 x 4
#>    cut   clarity term           p.value
#>    <ord> <ord>   <chr>            <dbl>
#>  1 Fair  I1      (Intercept)  6.18e-  1
#>  2 Fair  I1      scale(carat) 9.46e- 82
#>  3 Fair  SI2     (Intercept)  7.74e-  1
#>  4 Fair  SI2     scale(carat) 0        
#>  5 Fair  SI1     (Intercept)  5.91e-  1
#>  6 Fair  SI1     scale(carat) 2.01e-167
#>  7 Fair  VS2     (Intercept)  6.96e-  1
#>  8 Fair  VS2     scale(carat) 2.81e- 69
#>  9 Fair  VS1     (Intercept)  6.18e-  1
#> 10 Fair  VS1     scale(carat) 4.85e-146
#> # … with 70 more rows
…
