Running linear model (lm) across multiple grouping variables. — grouped_lm • groupedstats
…
# getting model summaries
# diamonds dataset from ggplot2
grouped_lm(
  data = diamonds,
  grouping.vars = c(cut, color),
  formula = price ~ carat * clarity,
  output = "glance"
)

#> # A tibble: 35 x 14
#>    cut   color r.squared adj.r.squared sigma statistic   p.value    df logLik
#>    <ord> <ord>     <dbl>         <dbl> <dbl>     <dbl>     <dbl> <dbl>  <dbl>
#>  1 Fair  D         0.915         0.906 1005.      106. 1.03e- 70    15 -1350.
#>  2 Fair  E         0.917         0.912  883.      179. 8.70e-106    13 -1830.
#>  3 Fair  F         0.917         0.912  954.      217. 9.37e-150    15 -2575.
#>  4 Fair  G         0.932         0.929  964.      273. 5.03e-164    15 -2595.
#>  5 Fair  H         0.932         0.929 1033.      332. 1.76e-161    12 -2526.
#>  6 Fair  I         0.958         0.955  794.      307. 1.14e-104    12 -1410.
#>  7 Fair  J         0.955         0.950  907.      204. 1.82e- 66    11  -973.
#>  8 Good  D         0.933         0.931  831.      600. 0            15 -5382.
#>  9 Good  E         0.927         0.926  905.      781. 0            15 -7667.
#> 10 Good  F         0.915         0.914  939.      644. 0            15 -7504.
#> # … with 25 more rows, and 5 more variables: AIC <dbl>, BIC <dbl>,
#> #   deviance <dbl>, df.residual <int>, nobs <int>
…
