Function to run t-test on multiple variables across multiple grouping variables. — grouped_ttest • groupedstats
…
    Value

    A tibble dataframe with tidy results from t-test analyses.

    Examples

groupedstats::grouped_ttest(
 data = dplyr::filter(.data = ggplot2::diamonds, color == "E" | color == "J"),
 dep.vars = c(carat, price, depth),
 indep.vars = color,
 grouping.vars = clarity,
 paired = FALSE,
 var.equal = FALSE
)
#> # A tibble: 24 x 10
#>    clarity formula    method       t.test estimate conf.low conf.high parameter
#>    <ord>   <chr>      <fct>         <dbl>    <dbl>    <dbl>     <dbl>     <dbl>
#>  1 SI2     carat ~ c~ Welch Two S~ -18.0  -5.03e-1 -5.58e-1  -4.48e-1     634. 
#>  2 SI1     carat ~ c~ Welch Two S~ -22.1  -4.62e-1 -5.03e-1  -4.20e-1     948. 
#>  3 VS1     carat ~ c~ Welch Two S~ -16.8  -4.44e-1 -4.96e-1  -3.92e-1     663. 
#>  4 VVS2    carat ~ c~ Welch Two S~ -12.0  -5.53e-1 -6.44e-1  -4.61e-1     140. 
#>  5 VS2     carat ~ c~ Welch Two S~ -24.6  -5.42e-1 -5.86e-1  -4.99e-1     856. 
#>  6 I1      carat ~ c~ Welch Two S~  -4.48 -6.44e-1 -9.32e-1  -3.57e-1      60.6
#>  7 VVS1    carat ~ c~ Welch Two S~  -6.53 -4.17e-1 -5.45e-1  -2.90e-1      76.1
#>  8 IF      carat ~ c~ Welch Two S~  -2.38 -1.98e-1 -3.64e-1  -3.18e-2      60.1
#>  9 SI2     price ~ c~ Welch Two S~ -10.6  -2.35e+3 -2.78e+3  -1.91e+3     676. 
#> 10 SI1     price ~ c~ Welch Two S~ -12.6  -2.02e+3 -2.34e+3  -1.71e+3    1031. 
#> # ... with 14 more rows, and 2 more variables: p.value <dbl>,
#> #   significance <chr>
…
