Descriptive statistics for multiple variables for all grouping variable levels — grouped_summary • groupedstats
…
# for factors, you can also convert the dataframe to long format with counts
groupedstats::grouped_summary(
  data = ggplot2::msleep,
  grouping.vars = c(vore),
  measures = c(genus:order),
  measures.type = "factor",
  topcount.long = TRUE
)
#> Joining, by = "vore"
#> # A tibble: 32 x 3
#>    vore  factor.level count
#>    <fct> <chr>        <int>
#>  1 carni Pan              3
#>  2 carni Vul              2
#>  3 carni Aci              1
#>  4 carni Cal              1
#>  5 carni Car             12
#>  6 carni Cet              3
#>  7 carni Cin              1
#>  8 carni Did              1
#>  9 herbi Spe              3
#> 10 herbi Equ              2
#> # ... with 22 more rows
…
