Function to run generalized linear mixed-effects model (glmer) across multiple grouping variables. — grouped_glmer • groupedstats
…
#> Warning: please use glmerControl() instead of lmerControl()
#> Warning: calling glmer() with family=gaussian (identity link) as a shortcut to lmer() is deprecated; please call lmer() directly
#> Warning: please use glmerControl() instead of lmerControl()
#> Warning: calling glmer() with family=gaussian (identity link) as a shortcut to lmer() is deprecated; please call lmer() directly
#> Warning: please use glmerControl() instead of lmerControl()
#> Warning: calling glmer() with family=gaussian (identity link) as a shortcut to lmer() is deprecated; please call lmer() directly
#> Warning: please use glmerControl() instead of lmerControl()
#> Warning: calling glmer() with family=gaussian (identity link) as a shortcut to lmer() is deprecated; please call lmer() directly
#> Warning: please use glmerControl() instead of lmerControl()
#> Warning: calling glmer() with family=gaussian (identity link) as a shortcut to lmer() is deprecated; please call lmer() directly
#> Warning: please use glmerControl() instead of lmerControl()
#> Warning: calling glmer() with family=gaussian (identity link) as a shortcut to lmer() is deprecated; please call lmer() directly
#> Warning: please use glmerControl() instead of lmerControl()
#> Warning: calling glmer() with family=gaussian (identity link) as a shortcut to lmer() is deprecated; please call lmer() directly
#> # A tibble: 24 x 8
#>     year effect term             estimate std.error statistic conf.low conf.high
#>    <int> <chr>  <chr>               <dbl>     <dbl>     <dbl>    <dbl>     <dbl>
#>  1  1952 fixed  (Intercept)         0.221     0.280     0.789  -0.328      0.770
#>  2  1952 fixed  scale(gdpPercap)    0.480     0.136     3.54    0.215      0.746
#>  3  1992 fixed  (Intercept)         0.124     0.199     0.623  -0.266      0.514
#>  4  1992 fixed  scale(gdpPercap)    0.653     0.180     3.63    0.300      1.01 
#>  5  2007 fixed  (Intercept)         0.289     0.187     1.54   -0.0784     0.656
#>  6  2007 fixed  scale(gdpPercap)    0.574     0.204     2.82    0.175      0.973
#>  7  1987 fixed  (Intercept)         0.318     0.291     1.09   -0.252      0.888
#>  8  1987 fixed  scale(gdpPercap)    0.537     0.177     3.04    0.190      0.883
#>  9  1977 fixed  (Intercept)         0.573     0.142     4.03    0.294      0.852
#> 10  1977 fixed  scale(gdpPercap)    1.22      0.553     2.20    0.134      2.30 
#> # ... with 14 more rows
…
