Function to run linear mixed-effects model (lmer) across multiple grouping variables. — grouped_lmer • groupedstats
…
  output = "tidy"
)
#> Computing p-values via Wald-statistics approximation (treating t as Wald z).
#> Computing p-values via Wald-statistics approximation (treating t as Wald z).
#> Computing p-values via Wald-statistics approximation (treating t as Wald z).
#> Computing p-values via Wald-statistics approximation (treating t as Wald z).
#> Computing p-values via Wald-statistics approximation (treating t as Wald z).
#> Computing p-values via Wald-statistics approximation (treating t as Wald z).
#> Computing p-values via Wald-statistics approximation (treating t as Wald z).
#> Computing p-values via Wald-statistics approximation (treating t as Wald z).
#> Computing p-values via Wald-statistics approximation (treating t as Wald z).
#> Computing p-values via Wald-statistics approximation (treating t as Wald z).
#> Computing p-values via Wald-statistics approximation (treating t as Wald z).
#> Computing p-values via Wald-statistics approximation (treating t as Wald z).
#> # A tibble: 24 x 10
#>     year effect term  estimate std.error t.value conf.low conf.high p.value
#>    <int> <chr>  <chr>    <dbl>     <dbl>   <dbl>    <dbl>     <dbl>   <dbl>
#>  1  1967 fixed  (Int~   0.203     0.321    0.633  -0.426      0.833 5.27e-1
#>  2  1967 fixed  scal~   0.369     0.110    3.35    0.153      0.585 8.23e-4
#>  3  1977 fixed  (Int~   0.0658    0.444    0.148  -0.805      0.937 8.82e-1
#>  4  1977 fixed  scal~   0.347     0.0871   3.98    0.176      0.517 6.90e-5
#>  5  1982 fixed  (Int~   0.284     0.253    1.12   -0.211      0.780 2.61e-1
#>  6  1982 fixed  scal~   0.501     0.163    3.07    0.181      0.821 2.17e-3
#>  7  2002 fixed  (Int~   0.296     0.288    1.03   -0.268      0.860 3.04e-1
#>  8  2002 fixed  scal~   0.495     0.206    2.41    0.0922     0.899 1.60e-2
#>  9  1952 fixed  (Int~   0.181     0.259    0.701  -0.326      0.689 4.83e-1
#> 10  1952 fixed  scal~   0.467     0.0863   5.42    0.298      0.636 5.98e-8
#> # ... with 14 more rows, and 1 more variable: significance <chr>

# getting model summaries
# let's use only 50% data to speed it up
grouped_lmer(
  data = ggplot2::diamonds,
  formula = scale(price) ~ scale(carat) + (carat | color),
  REML = FALSE,
  grouping.vars = c(cut, clarity),
  output = "glance"
)
#> # A tibble: 40 x 8
#>    cut       clarity sigma logLik    AIC    BIC deviance df.residual
#>    <ord>     <ord>   <dbl>  <dbl>  <dbl>  <dbl>    <dbl>       <int>
#>  1 Ideal     SI2     0.252 -134.   279.   315.     267.         2592
#>  2 Premium   SI1     0.254 -201.   414.   451.     402.         3569
#>  3 Good      VS1     0.269  -83.1  178.   205.     166.          642
#>  4 Premium   VS2     0.243  -47.4  107.   144.      94.8        3351
#>  5 Good      SI2     0.273 -151.   313.   343.     301.         1075
#>  6 Very Good VVS2    0.232   27.9  -43.9  -13.1    -55.9        1229
#>  7 Very Good VVS1    0.245  -31.1   74.2  102.      62.2         783
#>  8 Very Good SI1     0.256 -204.   420.   456.     408.         3234
#>  9 Fair      VS2     0.287  -59.8  132.   153.     120.          255
#> 10 Very Good VS1     0.246  -52.4  117.   150.     105.         1769
#> # ... with 30 more rows
…
