…
#> boundary (singular) fit: see ?isSingular
#> Warning: Model failed to converge with max|grad| = 0.00410881 (tol = 0.002, component 1)
#> Warning: Model failed to converge with max|grad| = 0.00467333 (tol = 0.002, component 1)
#> Warning: Model failed to converge with max|grad| = 0.0121777 (tol = 0.002, component 1)
#> boundary (singular) fit: see ?isSingular
#> Warning: Model failed to converge with max|grad| = 0.00589871 (tol = 0.002, component 1)
#> Warning: Model failed to converge with max|grad| = 0.0067855 (tol = 0.002, component 1)
#> Warning: Model failed to converge with max|grad| = 0.00547488 (tol = 0.002, component 1)
#> boundary (singular) fit: see ?isSingular
#> Warning: Model failed to converge with max|grad| = 0.00322474 (tol = 0.002, component 1)
#> Warning: Model failed to converge with max|grad| = 0.00415485 (tol = 0.002, component 1)
#> Warning: Model failed to converge with max|grad| = 0.00210569 (tol = 0.002, component 1)
#> Warning: Model failed to converge with max|grad| = 0.0229755 (tol = 0.002, component 1)
#> Warning: Model failed to converge with max|grad| = 0.00224087 (tol = 0.002, component 1)
#> # A tibble: 80 x 4
#>    cut   clarity term           p.value
#>    <ord> <ord>   <chr>            <dbl>
#>  1 Fair  I1      (Intercept)  6.18e-  1
#>  2 Fair  I1      scale(carat) 1.01e- 81
#>  3 Fair  SI2     (Intercept)  7.74e-  1
#>  4 Fair  SI2     scale(carat) 0.       
#>  5 Fair  SI1     (Intercept)  5.91e-  1
#>  6 Fair  SI1     scale(carat) 2.70e-167
#>  7 Fair  VS2     (Intercept)  6.96e-  1
#>  8 Fair  VS2     scale(carat) 2.84e- 69
#>  9 Fair  VS1     (Intercept)  6.18e-  1
#> 10 Fair  VS1     scale(carat) 4.76e-146
#> # ... with 70 more rows
…
