Running linear model (lm) across multiple grouping variables. — grouped_lm • groupedstats
…
# getting model summaries
# diamonds dataset from ggplot2
grouped_lm(
  data = diamonds,
  grouping.vars = c(cut, color),
  formula = price ~ carat * clarity,
  output = "glance"
)

#> # A tibble: 35 x 14
#>    cut   color r.squared adj.r.squared sigma statistic   p.value    df logLik
#>    <ord> <ord>     <dbl>         <dbl> <dbl>     <dbl>     <dbl> <dbl>  <dbl>
#>  1 Fair  D         0.915         0.906 1005.      106. 1.03e- 70    15 -1350.
#>  2 Fair  E         0.917         0.912  883.      179. 8.70e-106    13 -1830.
#>  3 Fair  F         0.917         0.912  954.      217. 9.37e-150    15 -2575.
#>  4 Fair  G         0.932         0.929  964.      273. 5.03e-164    15 -2595.
#>  5 Fair  H         0.932         0.929 1033.      332. 1.76e-161    12 -2526.
#>  6 Fair  I         0.958         0.955  794.      307. 1.14e-104    12 -1410.
#>  7 Fair  J         0.955         0.950  907.      204. 1.82e- 66    11  -973.
#>  8 Good  D         0.933         0.931  831.      600. 0.           15 -5382.
#>  9 Good  E         0.927         0.926  905.      781. 0.           15 -7667.
#> 10 Good  F         0.915         0.914  939.      644. 0.           15 -7504.
#>       AIC    BIC   deviance df.residual  nobs
#>     <dbl>  <dbl>      <dbl>       <int> <int>
#>  1  2733.  2786. 148463951.         147   163
#>  2  3690.  3741. 163677866.         210   224
#>  3  5184.  5248. 269389292.         296   312
#>  4  5224.  5288. 277025077.         298   314
#>  5  5081.  5133. 309753202.         290   303
#>  6  2848.  2892. 102049583.         162   175
#>  7  1972.  2008.  88046170.         107   119
#>  8 10797. 10874. 446239835.         646   662
#>  9 15369. 15451. 750592238.         917   933
#> 10 15042. 15123. 787519475.         893   909
#> # ... with 25 more rows
…
